…
    ## 'data.frame':    500 obs. of  4 variables:
    ##  $ truth    : Factor w/ 2 levels "Class1","Class2": 2 1 2 1 2 1 1 1 2 2 ...
    ##  $ Class1   : num  0.00359 0.67862 0.11089 0.73516 0.01624 ...
    ##  $ Class2   : num  0.996 0.321 0.889 0.265 0.984 ...
    ##  $ predicted: Factor w/ 2 levels "Class1","Class2": 2 1 2 1 2 1 1 1 2 2 ...

``` {.r}
predict(rf$fit, spam_test, type = 'prob')
```

    ## # A tibble: 921 × 2
    ##    .pred_0 .pred_1
    ##      <dbl>   <dbl>
    ##  1   0.006   0.994
    ##  2   0.178   0.822
    ##  3   0.206   0.794
    ##  4   0.092   0.908
    ##  5   0.024   0.976
    ##  6   0.888   0.112
    ##  7   0.47    0.53 
    ##  8   0.012   0.988
    ##  9   0.022   0.978
    ## 10   0.06    0.94 
    ## # … with 911 more rows
…
rf$predictions <- predict_wrapper(rf$fit, spam_test, 'spam', 'ham')
rf$predictions
```

    ## # A tibble: 921 × 4
    ##    truth   ham  spam predicted
    ##    <fct> <dbl> <dbl> <fct>    
    ##  1 spam  0.006 0.994 spam     
    ##  2 spam  0.178 0.822 spam     
    ##  3 spam  0.206 0.794 spam     
    ##  4 spam  0.092 0.908 spam     
    ##  5 spam  0.024 0.976 spam     
    ##  6 spam  0.888 0.112 ham      
    ##  7 spam  0.47  0.53  spam     
    ##  8 spam  0.012 0.988 spam     
    ##  9 spam  0.022 0.978 spam     
    ## 10 spam  0.06  0.94  spam     
    ## # … with 911 more rows
…
